INDEX VERSION 1.127+C:\1\.metadata\.plugins\org.eclipse.jdt.core
1126381264.index
1075865446.index
3524662672.index
2235551016.index
2851524012.index
742974785.index
4089353016.index
2671045963.index
2528020881.index
2085746493.index
2621474335.index
286217041.index
737875853.index
152699204.index
3306367843.index
565102271.index
1681516525.index
462786078.index
2053797313.index
